…
# Filtering on multiple conditions (combined with &)
x %>%
  filter_media(captureMethod == "activityDetection", filePublic == FALSE) %>%
  media()
#> # A tibble: 60 × 12
#>    mediaID  deploymentID captureMethod   timestamp           filePath filePublic
#>    <chr>    <chr>        <fct>           <dttm>              <chr>    <lgl>     
#>  1 075f9dfd 00a2c20d     activityDetect… 2020-07-01 09:40:42 https:/… FALSE     
#>  2 f99b3751 00a2c20d     activityDetect… 2020-07-01 09:40:43 https:/… FALSE     
#>  3 70ec9558 00a2c20d     activityDetect… 2020-07-01 09:40:45 https:/… FALSE     
#>  4 534a79c0 00a2c20d     activityDetect… 2020-07-01 09:40:45 https:/… FALSE     
#>  5 c66bcfd1 00a2c20d     activityDetect… 2020-07-01 09:40:46 https:/… FALSE     
#>  6 11e92a6f 00a2c20d     activityDetect… 2020-07-01 09:40:46 https:/… FALSE     
#>  7 15b7b50e 00a2c20d     activityDetect… 2020-07-01 09:40:47 https:/… FALSE     
#>  8 9a886c5b 00a2c20d     activityDetect… 2020-07-01 09:40:48 https:/… FALSE     
#>  9 a98fde19 00a2c20d     activityDetect… 2020-07-01 09:40:48 https:/… FALSE     
#> 10 6b57b8cd 00a2c20d     activityDetect… 2020-07-01 09:40:49 https:/… FALSE     
#> # ℹ 50 more rows
#> # ℹ 6 more variables: fileName <chr>, fileMediatype <chr>, exifData <chr>,
#> #   favorite <lgl>, mediaComments <chr>, eventID <chr>
…
