…
Other filter functions:
[`filter_deployments()`](https://inbo.github.io/camtrapdp/reference/filter_deployments.md),
[`filter_media()`](https://inbo.github.io/camtrapdp/reference/filter_media.md)

## Examples

``` r
x <- example_dataset()

# Filtering returns x, so pipe with observations() to see the result
x %>%
  filter_observations(observationType == "animal") %>%
  observations()
#> # A tibble: 366 × 32
#>    observationID deploymentID mediaID  eventID  eventStart         
#>    <chr>         <chr>        <chr>    <chr>    <dttm>             
#>  1 705e6036      00a2c20d     NA       4bb69c45 2020-05-30 02:57:37
#>  2 07840dcc_1    00a2c20d     07840dcc 4bb69c45 2020-05-30 02:57:37
#>  3 401386c7_1    00a2c20d     401386c7 4bb69c45 2020-05-30 02:57:40
#>  4 ca3ff293_1    00a2c20d     ca3ff293 4bb69c45 2020-05-30 02:57:40
#>  5 e8b8e44c_1    00a2c20d     e8b8e44c 4bb69c45 2020-05-30 02:57:41
#>  6 b8690a15_1    00a2c20d     b8690a15 4bb69c45 2020-05-30 02:57:41
#>  7 64734615_1    00a2c20d     64734615 4bb69c45 2020-05-30 02:57:42
#>  8 12ce5004_1    00a2c20d     12ce5004 4bb69c45 2020-05-30 02:57:43
#>  9 f372acaf_1    00a2c20d     f372acaf 4bb69c45 2020-05-30 02:57:43
#> 10 97140835_1    00a2c20d     97140835 4bb69c45 2020-05-30 02:57:44
#> # ℹ 356 more rows
#> # ℹ 27 more variables: eventEnd <dttm>, observationLevel <fct>,
#> #   observationType <fct>, cameraSetupType <fct>, scientificName <chr>,
#> #   count <dbl>, lifeStage <fct>, sex <fct>, behavior <chr>,
#> #   individualID <chr>, individualPositionRadius <dbl>,
#> #   individualPositionAngle <dbl>, individualSpeed <dbl>, bboxX <dbl>,
#> #   bboxY <dbl>, bboxWidth <dbl>, bboxHeight <dbl>, …
…
# Filtering on multiple conditions (combined with &)
x %>%
  filter_observations(
    deploymentID == "577b543a",
    scientificName %in% c("Martes foina", "Mustela putorius")
  ) %>%
  observations()
#> # A tibble: 23 × 32
#>    observationID deploymentID mediaID  eventID  eventStart         
#>    <chr>         <chr>        <chr>    <chr>    <dttm>             
#>  1 e622b65c      577b543a     NA       976129e2 2020-06-19 22:31:51
#>  2 a8848796_1    577b543a     a8848796 976129e2 2020-06-19 22:31:51
#>  3 e470918a_1    577b543a     e470918a 976129e2 2020-06-19 22:31:51
#>  4 5ff74dc7_1    577b543a     5ff74dc7 976129e2 2020-06-19 22:31:52
#>  5 fb662fab      577b543a     NA       b4b39b00 2020-06-23 23:33:53
#>  6 91de8c9e_1    577b543a     91de8c9e b4b39b00 2020-06-23 23:33:53
#>  7 7f0758ac_1    577b543a     7f0758ac b4b39b00 2020-06-23 23:33:54
#>  8 7fc6cb24_1    577b543a     7fc6cb24 b4b39b00 2020-06-23 23:33:54
#>  9 dfdc4c48      577b543a     NA       5be4f4ed 2020-06-28 22:01:12
#> 10 e9c1a382_1    577b543a     e9c1a382 5be4f4ed 2020-06-28 22:01:12
#> # ℹ 13 more rows
#> # ℹ 27 more variables: eventEnd <dttm>, observationLevel <fct>,
#> #   observationType <fct>, cameraSetupType <fct>, scientificName <chr>,
#> #   count <dbl>, lifeStage <fct>, sex <fct>, behavior <chr>,
#> #   individualID <chr>, individualPositionRadius <dbl>,
#> #   individualPositionAngle <dbl>, individualSpeed <dbl>, bboxX <dbl>,
#> #   bboxY <dbl>, bboxWidth <dbl>, bboxHeight <dbl>, …
…
